<svg width="14" height="10" viewBox="0 0 14 10" fill="none" xmlns="http://www.w3.org/2000/svg">
<path fill-rule="evenodd" clip-rule="evenodd" d="M7.40045 4.87123C7.15826 5.03377 6.82164 5.03127 6.57945 4.87123L0.74757 0.732685C0.437177 0.524299 0.605051 0 0.995883 0H12.9963C13.388 0 13.5558 0.524299 13.2454 0.732685L7.40045 4.87123ZM13.9948 8.05367V8.8197C13.9948 9.4707 13.4422 10 12.7602 10H1.23982C0.557832 10 0.00524607 9.4707 0.00524607 8.8197V8.05701C0.00437172 8.0395 0 8.02367 0 8.00783V2.724C0 2.39308 0.390832 2.20803 0.655758 2.41392L6.4037 6.47661C6.75693 6.74334 7.25618 6.74334 7.61029 6.47661L13.3442 2.41392C13.6092 2.20803 14 2.39308 14 2.724V8.00783C14 8.02367 13.9956 8.03951 13.9948 8.05367Z" fill="white" fill-opacity="0.5"/>
</svg>
