<?xml version="1.0" encoding="utf-8"?>
<!-- Generator: Adobe Illustrator 23.0.0, SVG Export Plug-In . SVG Version: 6.00 Build 0)  -->
<svg version="1.1" id="Слой_1" xmlns="http://www.w3.org/2000/svg" xmlns:xlink="http://www.w3.org/1999/xlink" x="0px" y="0px"
	 viewBox="0 0 655 496" style="enable-background:new 0 0 655 496;" xml:space="preserve">
<style type="text/css">
	.st0{fill:url(#SVGID_1_);}
	.st1{fill:url(#SVGID_2_);}
</style>
<linearGradient id="SVGID_1_" gradientUnits="userSpaceOnUse" x1="212.2133" y1="411.5821" x2="463.6743" y2="54.757" gradientTransform="matrix(1 0 0 -1 0 498)">
	<stop  offset="0" style="stop-color:#000000"/>
	<stop  offset="0.23" style="stop-color:#050505"/>
	<stop  offset="0.49" style="stop-color:#131313"/>
	<stop  offset="0.77" style="stop-color:#292929"/>
	<stop  offset="1" style="stop-color:#424242"/>
</linearGradient>
<path class="st0" d="M77.6,496h-2c-43.9-0.7-71.3-13.4-75.1-34.8c-3-16.9,9.2-38.1,34.4-59.5c27.9-23.7,70.7-47.2,123.6-67.8
	c44.9-17.4,76.9-48.7,107.9-79c24-23.4,48.7-47.5,79.3-65.2c15-8.7,30.5-14.8,45.5-20.7c23.7-9.2,46.2-18.1,66.9-36.3
	c19.2-16.9,34-37.4,48.3-57.2c10.9-15.1,22.1-30.7,35.3-44.7C574.5-4,610.6-5.7,631.9,8c18.9,12.2,32.7,40.9,14.7,84.5
	c-8.3,20.1-23.3,34.7-37.9,48.8c-13,12.6-26.5,25.7-35,42.7c-9.6,19-14.5,40.2-19.3,60.7c-7.4,31.8-15,64.6-40.6,88.9
	c-28.5,27.1-76.9,40.5-148.1,40.9c-67.8,0.4-116.1,34.1-163.1,66.7C162.1,469.4,123.8,496,77.6,496z M603.3,0.8
	c-18.6,0-40.4,8.7-60.8,30.5c-12.9,13.7-24,29.1-34.7,43.9c-0.2,0.2-0.3,0.5-0.5,0.7c-0.1,0.1-0.2,0.3-0.3,0.4
	c-14.3,19.8-29,40.3-48.1,57c-20.8,18.3-43.3,27.1-67.2,36.5c-15,5.9-30.5,11.9-45.4,20.6c-30.4,17.6-55.1,41.7-79,65
	c0,0-0.1,0.1-0.1,0.1c-31,30.3-63.2,61.6-108.1,79.1c-52.9,20.6-95.5,43.9-123.4,67.6c-25,21.2-37.1,42.1-34.1,58.7
	c3.7,20.9,30.8,33.2,74.2,34h2c45.9,0,84.1-26.6,124.6-54.7c0,0,0,0,0.1,0c47-32.7,95.5-66.4,163.6-66.8
	c71-0.4,119.2-13.7,147.5-40.6c25.3-24,32.9-56.8,40.2-88.5c0,0,0,0,0,0c4.8-20.6,9.7-41.8,19.4-60.9c8.7-17.1,22.1-30.2,35.3-42.9
	c0,0,0,0,0,0c14.5-14.1,29.5-28.6,37.7-48.5C663.5,49,650,20.7,631.4,8.7C623,3.4,613.2,0.7,603.3,0.8z"/>
<linearGradient id="SVGID_2_" gradientUnits="userSpaceOnUse" x1="159.4458" y1="486.5648" x2="480.9583" y2="30.3361" gradientTransform="matrix(1 0 0 -1 0 498)">
	<stop  offset="0" style="stop-color:#000000;stop-opacity:5.000000e-02"/>
	<stop  offset="0.1443" style="stop-color:#050505;stop-opacity:0.1"/>
	<stop  offset="0.2916" style="stop-color:#131313;stop-opacity:0.15"/>
	<stop  offset="0.5081" style="stop-color:#292929;stop-opacity:0.2"/>
	<stop  offset="0.772" style="stop-color:#424242;stop-opacity:0.3"/>
</linearGradient>
<path class="st1" d="M603.3,0.8c-18.6,0-40.4,8.7-60.8,30.5c-12.9,13.7-24,29.1-34.7,43.9l-0.5,0.7l-0.3,0.4
	c-14.3,19.8-29,40.3-48.1,57c-20.8,18.3-43.3,27.1-67.2,36.5c-15,5.9-30.5,11.9-45.4,20.6c-30.4,17.6-55.1,41.7-79,65l-0.1,0.1
	c-31,30.3-63.2,61.6-108.1,79.1c-52.9,20.6-95.5,43.9-123.4,67.6c-25,21.2-37.1,42.1-34.1,58.7c3.7,20.9,30.8,33.2,74.2,34h2
	c45.9,0,84.1-26.6,124.6-54.7l0.1,0c47-32.7,95.5-66.4,163.6-66.8c71-0.4,119.2-13.7,147.5-40.6c25.3-24,32.9-56.8,40.2-88.5l0,0
	c4.8-20.6,9.7-41.8,19.4-60.9c8.7-17.1,22.1-30.2,35.3-42.9l0,0c14.5-14.1,29.5-28.6,37.7-48.5C663.5,49,650,20.7,631.4,8.7
	C623,3.4,613.2,0.7,603.3,0.8z"/>
</svg>
